%!PS-Adobe-3.0 EPSF-3.0
%%Pages: (atend)
%%BoundingBox: 0 0 745 343
%%HiResBoundingBox: 0.480000 0.264000 744.479977 342.263990
%.........................................
%%Creator: GPL Ghostscript 870 (pswrite)
%%CreationDate: 2014/05/07 17:44:24
%%DocumentData: Clean7Bit
%%LanguageLevel: 2
%%EndComments
%%BeginProlog
save
countdictstack
mark
newpath
/showpage {} def
/setpagedevice {pop} def
%%EndProlog
%%Page 1 1
%%BeginProlog
% This copyright applies to everything between here and the %%EndProlog:
% Copyright (C) 2009 Artifex Software, Inc.  All rights reserved.
%%BeginResource: procset GS_pswrite_2_0_1001 1.001 0
/GS_pswrite_2_0_1001 80 dict dup begin
/PageSize 2 array def/setpagesize{ PageSize aload pop 3 index eq exch
4 index eq and{ pop pop pop}{ PageSize dup  1
5 -1 roll put 0 4 -1 roll put dup null eq {false} {dup where} ifelse{ exch get exec}
{ pop/setpagedevice where
{ pop 1 dict dup /PageSize PageSize put setpagedevice}
{ /setpage where{ pop PageSize aload pop pageparams 3 {exch pop} repeat
setpage}if}ifelse}ifelse}ifelse} bind def
/!{bind def}bind def/#{load def}!/N/counttomark #
/rG{3{3 -1 roll 255 div}repeat setrgbcolor}!/G{255 div setgray}!/K{0 G}!
/r6{dup 3 -1 roll rG}!/r5{dup 3 1 roll rG}!/r3{dup rG}!
/w/setlinewidth #/J/setlinecap #
/j/setlinejoin #/M/setmiterlimit #/d/setdash #/i/setflat #
/m/moveto #/l/lineto #/c/rcurveto #
/p{N 2 idiv{N -2 roll rlineto}repeat}!
/P{N 0 gt{N -2 roll moveto p}if}!
/h{p closepath}!/H{P closepath}!
/lx{0 rlineto}!/ly{0 exch rlineto}!/v{0 0 6 2 roll c}!/y{2 copy c}!
/re{4 -2 roll m exch dup lx exch ly neg lx h}!
/^{3 index neg 3 index neg}!
/f{P fill}!/f*{P eofill}!/s{H stroke}!/S{P stroke}!
/q/gsave #/Q/grestore #/rf{re fill}!
/Y{P clip newpath}!/Y*{P eoclip newpath}!/rY{re Y}!
/|={pop exch 4 1 roll 1 array astore cvx 3 array astore cvx exch 1 index def exec}!
/|{exch string readstring |=}!
/+{dup type/nametype eq{2 index 7 add -3 bitshift 2 index mul}if}!
/@/currentfile #/${+ @ |}!
/B{{2 copy string{readstring pop}aload pop 4 array astore cvx
3 1 roll}repeat pop pop true}!
/Ix{[1 0 0 1 11 -2 roll exch neg exch neg]exch}!
/,{true exch Ix imagemask}!/If{false exch Ix imagemask}!/I{exch Ix image}!
/Ic{exch Ix false 3 colorimage}!
/F{/Columns counttomark 3 add -2 roll/Rows exch/K -1/BlackIs1 true>>
/CCITTFaxDecode filter}!/FX{<</EndOfBlock false F}!
/X{/ASCII85Decode filter}!/@X{@ X}!/&2{2 index 2 index}!
/@F{@ &2<<F}!/@C{@X &2 FX}!
/$X{+ @X |}!/&4{4 index 4 index}!/$F{+ @ &4<<F |}!/$C{+ @X &4 FX |}!
/IC{3 1 roll 10 dict begin 1{/ImageType/Interpolate/Decode/DataSource
/ImageMatrix/BitsPerComponent/Height/Width}{exch def}forall
currentdict end image}!
/~{@ read {pop} if}!
end def
%%EndResource
/pagesave null def
%%EndProlog
%%Page: 1 1
%%BeginPageSetup
GS_pswrite_2_0_1001 begin
745 343 null setpagesize
/pagesave save store 197 dict begin
0.012 0.012 scale
%%EndPageSetup
gsave mark
Q q
40 22 62000 0 0 28500 ^ Y
255 G
40 22 62075.5 28541.8 re
f
4968.31 4045.43 25363.6 23250 re
f
Q q
4968.33 4045.33 25366.7 23250 re
Y
125 w
2 J
1 j
K
5602.07 6899.98 1264.38 1693.1 1264.38 1719.17 1264.42 1764.92 1264.33 2665.25 1264.42 3770.66 1264.33 707.92 1264.42 990.33 
1264.33 692.75 1264.42 967.09 1264.33 662.83 1264.42 -1405.67 1264.33 1353.59 1264.42 253 1264.33 -817.75 1264.42 3292 
1264.33 -62.59 1264.42 -1375.5 1264.33 804.91 1264.42 2299.5 S
Q q
40 22 62000 0 0 28500 ^ Y
K
4968.31 4045.43 0 416.66 f
83.3333 w
1 j
4968.31 4045.43 0 416.66 S
4968.31 27295.4 0 -416.67 f
4968.31 27295.4 0 -416.67 S
10041 4045.43 0 416.66 f
10041 4045.43 0 416.66 S
10041 27295.4 0 -416.67 f
10041 27295.4 0 -416.67 S
15113.8 4045.43 0 416.66 f
15113.8 4045.43 0 416.66 S
15113.8 27295.4 0 -416.67 f
15113.8 27295.4 0 -416.67 S
20186.5 4045.43 0 416.66 f
20186.5 4045.43 0 416.66 S
20186.5 27295.4 0 -416.67 f
20186.5 27295.4 0 -416.67 S
25259.2 4045.43 0 416.66 f
25259.2 4045.43 0 416.66 S
25259.2 27295.4 0 -416.67 f
25259.2 27295.4 0 -416.67 S
30331.9 4045.43 0 416.66 f
30331.9 4045.43 0 416.66 S
30331.9 27295.4 0 -416.67 f
30331.9 27295.4 0 -416.67 S
4968.31 4045.43 416.67 0 f
4968.31 4045.43 416.67 0 S
30331.9 4045.43 -416.66 0 f
30331.9 4045.43 -416.66 0 S
4968.31 7920.43 416.67 0 f
4968.31 7920.43 416.67 0 S
30331.9 7920.43 -416.66 0 f
30331.9 7920.43 -416.66 0 S
4968.31 11795.4 416.67 0 f
4968.31 11795.4 416.67 0 S
30331.9 11795.4 -416.66 0 f
30331.9 11795.4 -416.66 0 S
4968.31 15670.4 416.67 0 f
4968.31 15670.4 416.67 0 S
30331.9 15670.4 -416.66 0 f
30331.9 15670.4 -416.66 0 S
4968.31 19545.4 416.67 0 f
4968.31 19545.4 416.67 0 S
30331.9 19545.4 -416.66 0 f
30331.9 19545.4 -416.66 0 S
4968.31 23420.4 416.67 0 f
4968.31 23420.4 416.67 0 S
30331.9 23420.4 -416.66 0 f
30331.9 23420.4 -416.66 0 S
4968.31 27295.4 416.67 0 f
4968.31 27295.4 416.67 0 S
30331.9 27295.4 -416.66 0 f
30331.9 27295.4 -416.66 0 S
125 w
4968.31 27295.4 25363.6 0 S
30331.9 4045.43 0 23250 S
4968.31 4045.43 25363.6 0 S
4968.31 4045.43 0 23250 S
255 G
35404.7 4045.43 25363.7 23250 re
f
Q q
35406.7 4045.33 25366.7 23250 re
Y
125 w
2 J
1 j
K
36038.4 6898.96 1264.42 424.17 1264.33 318.67 1264.42 294.79 1264.33 512.58 1264.42 837.83 1264.33 517.08 1264.42 471.09 
1264.41 508.25 1264.34 487 1264.41 913.91 1264.34 467.75 1264.41 982.34 1264.33 872.33 1264.42 696.83 1264.33 1105.33 
1264.42 1442.17 1264.33 2402.42 1264.42 3524.66 1264.33 3131.25 S
Q q
40 22 62000 0 0 28500 ^ Y
K
35404.7 4045.43 0 416.66 f
83.3333 w
1 j
35404.7 4045.43 0 416.66 S
35404.7 27295.4 0 -416.67 f
35404.7 27295.4 0 -416.67 S
40477.4 4045.43 0 416.66 f
40477.4 4045.43 0 416.66 S
40477.4 27295.4 0 -416.67 f
40477.4 27295.4 0 -416.67 S
45550.1 4045.43 0 416.66 f
45550.1 4045.43 0 416.66 S
45550.1 27295.4 0 -416.67 f
45550.1 27295.4 0 -416.67 S
50622.8 4045.43 0 416.66 f
50622.8 4045.43 0 416.66 S
50622.8 27295.4 0 -416.67 f
50622.8 27295.4 0 -416.67 S
55695.6 4045.43 0 416.66 f
55695.6 4045.43 0 416.66 S
55695.6 27295.4 0 -416.67 f
55695.6 27295.4 0 -416.67 S
60768.3 4045.43 0 416.66 f
60768.3 4045.43 0 416.66 S
60768.3 27295.4 0 -416.67 f
60768.3 27295.4 0 -416.67 S
35404.7 4045.43 416.67 0 f
35404.7 4045.43 416.67 0 S
60768.3 4045.43 -416.67 0 f
60768.3 4045.43 -416.67 0 S
35404.7 7366.85 416.67 0 f
35404.7 7366.85 416.67 0 S
60768.3 7366.85 -416.67 0 f
60768.3 7366.85 -416.67 0 S
35404.7 10688.2 416.67 0 f
35404.7 10688.2 416.67 0 S
60768.3 10688.2 -416.67 0 f
60768.3 10688.2 -416.67 0 S
35404.7 14009.7 416.67 0 f
35404.7 14009.7 416.67 0 S
60768.3 14009.7 -416.67 0 f
60768.3 14009.7 -416.67 0 S
35404.7 17331.2 416.67 0 f
35404.7 17331.2 416.67 0 S
60768.3 17331.2 -416.67 0 f
60768.3 17331.2 -416.67 0 S
35404.7 20652.6 416.67 0 f
35404.7 20652.6 416.67 0 S
60768.3 20652.6 -416.67 0 f
60768.3 20652.6 -416.67 0 S
35404.7 23974 416.67 0 f
35404.7 23974 416.67 0 S
60768.3 23974 -416.67 0 f
60768.3 23974 -416.67 0 S
35404.7 27295.4 416.67 0 f
35404.7 27295.4 416.67 0 S
60768.3 27295.4 -416.67 0 f
60768.3 27295.4 -416.67 0 S
125 w
35404.7 27295.4 25363.7 0 S
60768.3 4045.43 0 23250 S
35404.7 4045.43 25363.7 0 S
35404.7 4045.43 0 23250 S
Q q
Y
0.83022 i
K
-6642.07 36013.6 m
21.56 -1.7 35.66 -2.54 57.23 -2.54 c
64.7 0 109.48 8.31 145.15 28.27 c
49.77 26.61 79.68 77.32 79.68 132.2 c
0 34.92 -11.62 66.52 -34.04 90.63 c
-33.21 36.58 -105.44 59.88 -183.48 59.88 c
-219.18 0 0 -15.98 p
61.43 -6.64 69.74 -14.95 69.74 -74.72 c
0 -359.49 p
0 -69.74 -6.64 -78.04 -69.74 -83.85 c
0 -15.98 232.46 0 ^ p
-65.41 2.49 -77.82 14.1 -77.82 74.64 c
h
-6642.07 36262.7 m
0 22.45 5.79 28.32 28.13 28.32 c
111.7 0 163.03 -39.13 163.03 -124.79 c
0 -80.67 -48.85 -122.25 -144 -122.25 c
-16.55 0 -28.13 0.83 -47.16 2.5 c
h
f
-5978.89 36333.2 -17.43 0 P
-3.32 -19.09 -12.45 -28.23 -26.55 -28.23 c
-8.3 0 -22.4 3.3 -36.51 9.89 c
-30.7 11.54 -61.41 18.13 -87.96 18.13 c
-35.68 0 -72.19 -14.19 -99.57 -38.27 c
-29.05 -25.74 -43.98 -60.61 -43.98 -103.78 c
0 -66.42 36.53 -112.91 129.52 -161.89 c
59.77 -31.55 102.95 -65.59 123.7 -97.14 c
7.47 -10.79 11.68 -28.23 11.68 -48.15 c
0 -55.62 -41.6 -93.81 -102.23 -93.81 c
-73.92 0 -126.25 45.74 -167.79 147.23 c
-19.1 0 24.23 -177.2 18.31 0 p
0.83 16.7 10.82 29 23.3 29 c
9.16 0 23.3 -3.42 39.12 -9.39 c
31.63 -12.8 64.91 -19.62 98.2 -19.62 c
95.71 0 169.87 65.6 169.87 151.13 c
0 68.09 -45.8 122.07 -155.6 181.04 c
-87.34 48.16 -122.28 84.7 -122.28 129.54 c
0 45.68 34.91 77.33 86.45 77.33 c
37.41 0 72.32 -15.77 101.41 -45.63 c
25.77 -26.54 37.41 -48.11 50.71 -97.04 c
20.79 0 h
f
-5633.46 36146 -101.52 0 0 96.18 P
0 48.09 15.72 73.82 47.15 73.82 c
17.37 0 28.95 -8.34 43.84 -32.5 c
13.23 -21.66 23.16 -29.99 37.22 -29.99 c
19.03 0 34.75 14.93 34.75 34.01 c
0 29.87 -36.61 51.45 -86.51 51.45 c
-51.56 0 -95.64 -22.37 -117.26 -60.46 c
-21.62 -36.44 -28.28 -66.25 -29.11 -132.51 c
-67.66 0 0 -26.97 ^ 0 -261.08 p
0 -60.68 -9.08 -70.66 -68.49 -73.98 c
0 -11.98 215.86 0 ^ p
-68.29 2.49 -77.45 11.64 -77.45 73.98 c
0 261.08 101.52 0 h
f
-5604.19 36095.8 m
11.6 2.49 19.07 3.33 29.01 3.33 c
20.73 0 28.2 -13.3 28.2 -49.89 c
0 -207.86 p
0 -41.57 -5.81 -47.39 -58.87 -57.37 c
0 -11.98 199.25 0 ^ p
-56.37 2.5 -70.46 14.96 -70.46 62.36 c
0 187.07 p
0 26.61 35.67 68.18 58.07 68.18 c
4.98 0 12.45 -4.16 21.57 -12.47 c
13.27 -11.64 22.39 -16.63 33.18 -16.63 c
19.91 0 32.36 14.14 32.36 37.42 c
0 27.43 -17.43 44.09 -45.63 44.09 c
-34.84 0 -58.91 -19.12 -99.55 -78.14 c
0 76.47 -4.16 1.67 p
-44.04 -18.32 -73.94 -29.13 -122.96 -44.93 c
h
f
-4963.04 35826.8 m
-14.26 -11.67 -24.32 -15.84 -36.88 -15.84 c
-19.27 0 -25.14 11.63 -25.14 48.18 c
0 161.97 p
0 43.2 -4.18 67.28 -16.63 87.21 c
-18.25 29.91 -53.93 45.69 -102.87 45.69 c
-77.98 0 -139.37 -40.72 -139.37 -93.06 c
0 -19.11 16.7 -35.72 35.91 -35.72 c
20.04 0 37.58 16.61 37.58 34.88 c
0 3.32 -0.91 7.47 -1.83 13.29 c
-1.82 7.48 -2.74 14.12 -2.74 19.93 c
0 22.42 26.6 40.71 59.85 40.71 c
40.73 0 63.18 -24.07 63.18 -68.87 c
0 -50.61 p
-127.71 -51.43 -141.8 -58.07 -177.45 -89.6 c
-18.24 -16.59 -29.84 -44.8 -29.84 -72.18 c
0 -52.27 36.33 -88.77 86.7 -88.77 c
36.34 0 70.19 17.34 120.59 60.3 c
4.18 -42.95 19.25 -60.3 53.58 -60.3 c
28.46 0 46.04 9.91 75.37 41.3 c
h
-5091.99 35874.2 m
0 -25.72 -4.14 -33.18 -21.55 -43.14 c
-19.88 -11.61 -43.09 -19.08 -60.49 -19.08 c
-29 0 -52.2 28.21 -52.2 63.88 c
0 3.32 p
0 48.95 33.97 78.82 134.23 115.35 c
h
f
-4569.8 36094 0 31.96 -64.01 0 P
-16.61 0 -29.06 2.55 -45.67 8.49 c
-18.27 6.79 p
-22.43 8.49 -44.85 12.74 -66.44 12.74 c
-77.23 0 -138.68 -59.83 -138.68 -135.37 c
0 -52.3 22.42 -83.86 77.23 -111.25 c
-15.78 -14.95 -30.73 -29.06 -35.71 -33.21 c
-27.4 -24.07 -38.2 -40.68 -38.2 -57.29 c
0 -17.43 9.96 -27.39 44.02 -44 c
-58.96 -43.17 -81.38 -70.57 -81.38 -101.29 c
0 -44 64.77 -80.53 143.66 -80.53 c
62.29 0 127.06 21.58 170.27 56.44 c
31.76 25.73 45.98 52.29 45.98 83.83 c
0 51.46 -39.11 86.32 -100.59 88.81 c
-107.18 4.98 p
-44.04 1.66 -64.8 9.13 -64.8 22.41 c
0 16.6 27.39 45.65 49.8 52.32 c
7.47 -0.77 13.28 -1.54 15.77 -1.54 c
15.77 -1.54 26.56 -2.3 31.54 -2.3 c
30.71 0 63.91 12.42 89.64 34.79 c
27.39 23.2 39.85 52.19 39.85 93.61 c
0 24.02 -4.14 43.07 -15.72 69.61 c
h
-4838.18 35770 m
27.48 -5.84 94.09 -10.82 134.89 -10.82 c
75.77 0 103.3 -10.79 103.3 -40.66 c
0 -48.13 -63.34 -80.49 -157.43 -80.49 c
-73.27 0 -121.57 24.06 -121.57 60.57 c
0 19.09 5.83 29.87 40.8 71.39 c
h
-4833.81 36053.1 m
0 48.95 23.23 77.98 61.41 77.98 c
25.72 0 47.3 -14.11 60.58 -39 c
14.94 -29.04 24.91 -67.2 24.91 -99.55 c
0 -46.46 -24.09 -75.49 -62.26 -75.49 c
-49.79 0 -84.64 53.93 -84.64 133.57 c
h
f
-4334.19 36095.8 m
11.6 2.49 19.07 3.33 29.01 3.33 c
20.73 0 28.2 -13.3 28.2 -49.89 c
0 -207.86 p
0 -41.57 -5.81 -47.39 -58.87 -57.37 c
0 -11.98 199.25 0 ^ p
-56.37 2.5 -70.46 14.96 -70.46 62.36 c
0 187.07 p
0 26.61 35.67 68.18 58.07 68.18 c
4.98 0 12.45 -4.16 21.57 -12.47 c
13.27 -11.64 22.39 -16.63 33.18 -16.63 c
19.91 0 32.36 14.14 32.36 37.42 c
0 27.43 -17.43 44.09 -45.63 44.09 c
-34.84 0 -58.91 -19.12 -99.55 -78.14 c
0 76.47 -4.16 1.67 p
-44.04 -18.32 -73.94 -29.13 -122.96 -44.93 c
h
f
-3721.27 35908.2 m
-39.85 -63.13 -75.55 -87.21 -128.68 -87.21 c
-47.32 0 -83.02 24.09 -107.1 71.43 c
-14.94 31.57 -20.75 58.98 -22.41 109.65 c
255.71 0 p
-6.64 53.98 -14.95 78.05 -35.7 104.63 c
-24.91 29.9 -63.1 47.35 -106.27 47.35 c
-41.51 0 -80.53 -15.01 -112.08 -43.22 c
-39.02 -34.01 -61.44 -92.92 -61.44 -160.94 c
0 -114.49 59.78 -185.84 155.25 -185.84 c
78.87 0 141.14 48.88 176 138.34 c
h
-3977.81 36029 m
9.13 64.46 37.36 95.05 88 95.05 c
50.64 0 70.57 -23.16 81.36 -95.05 c
h
f
-3682.53 36098.3 m
7.45 0.83 13.24 0.83 20.68 0.83 c
28.13 0 33.93 -8.3 33.93 -47.32 c
0 -388.54 p
0 -43.17 -9.11 -52.3 -57.93 -57.29 c
0 -13.98 200.91 0 0 14.98 p
-62.27 0.83 -73.06 9.95 -73.06 62.19 c
0 130.23 p
29.03 -27.16 48.93 -35.39 83.77 -35.39 c
97.87 0 174.22 92.92 174.22 213.21 c
0 102.88 -58.11 176.79 -138.55 176.79 c
-46.45 0 -82.94 -20.79 -119.44 -65.69 c
0 64.02 -4.98 1.67 p
-44.83 -17.51 -73.89 -28.3 -119.55 -42.42 c
h
-3558 36049.4 m
0 24.84 46.55 54.69 84.79 54.69 c
61.51 0 102.29 -62.97 102.29 -159.04 c
0 -91.93 -40.78 -154.04 -100.62 -154.04 c
-39.07 0 -86.45 29.82 -86.45 54.66 c
h
f
-3254.23 36289.1 4.96 0 P
9.09 0.83 19.01 1.66 25.62 1.66 c
26.45 0 34.72 -11.63 34.72 -50.68 c
0 -396.3 p
0 -44.86 -11.58 -55.67 -63.64 -59.82 c
0 -11.98 195.93 0 ^ p
-52.39 3.32 -62.37 11.63 -62.37 57.32 c
0 496.01 -3.35 1.72 p
-43.13 -14.18 -74.65 -22.49 -131.87 -36.62 c
h
f
-2673.04 35826.8 m
-14.26 -11.67 -24.32 -15.84 -36.88 -15.84 c
-19.27 0 -25.14 11.63 -25.14 48.18 c
0 161.97 p
0 43.2 -4.18 67.28 -16.63 87.21 c
-18.25 29.91 -53.93 45.69 -102.87 45.69 c
-77.98 0 -139.37 -40.72 -139.37 -93.06 c
0 -19.11 16.7 -35.72 35.91 -35.72 c
20.04 0 37.58 16.61 37.58 34.88 c
0 3.32 -0.91 7.47 -1.83 13.29 c
-1.82 7.48 -2.74 14.12 -2.74 19.93 c
0 22.42 26.6 40.71 59.85 40.71 c
40.73 0 63.18 -24.07 63.18 -68.87 c
0 -50.61 p
-127.71 -51.43 -141.8 -58.07 -177.45 -89.6 c
-18.24 -16.59 -29.84 -44.8 -29.84 -72.18 c
0 -52.27 36.33 -88.77 86.7 -88.77 c
36.34 0 70.19 17.34 120.59 60.3 c
4.18 -42.95 19.25 -60.3 53.58 -60.3 c
28.46 0 46.04 9.91 75.37 41.3 c
h
-2801.99 35874.2 m
0 -25.72 -4.14 -33.18 -21.55 -43.14 c
-19.88 -11.61 -43.09 -19.08 -60.49 -19.08 c
-29 0 -52.2 28.21 -52.2 63.88 c
0 3.32 p
0 48.95 33.97 78.82 134.23 115.35 c
h
f
-2339.61 35901.5 m
-39.8 -57.77 -69.66 -77.57 -116.92 -77.57 c
-75.46 0 -128.53 66.35 -128.53 161.73 c
0 85.43 45.61 144.36 112.77 144.36 c
29.85 0 40.63 -9.17 48.93 -39.95 c
4.98 -18.3 p
6.63 -23.29 21.56 -38.27 38.97 -38.27 c
21.56 0 39.84 15.79 39.84 34.89 c
0 46.53 -58.28 85.59 -128.17 85.59 c
-40.77 0 -83.2 -16.67 -117.32 -46.54 c
-40.98 -36.5 -63.93 -92.92 -63.93 -158.46 c
0 -107.85 65.52 -185 157.59 -185 c
37.32 0 70.5 13.25 100.36 38.93 c
22.39 19.88 38.15 42.23 63.09 91.1 c
h
f
-1961.27 35908.2 m
-39.85 -63.13 -75.55 -87.21 -128.68 -87.21 c
-47.32 0 -83.02 24.09 -107.1 71.43 c
-14.94 31.57 -20.75 58.98 -22.41 109.65 c
255.71 0 p
-6.64 53.98 -14.95 78.05 -35.7 104.63 c
-24.91 29.9 -63.1 47.35 -106.27 47.35 c
-41.51 0 -80.53 -15.01 -112.08 -43.22 c
-39.02 -34.01 -61.44 -92.92 -61.44 -160.94 c
0 -114.49 59.78 -185.84 155.25 -185.84 c
78.87 0 141.14 48.88 176 138.34 c
h
-2217.81 36029 m
9.13 64.46 37.36 95.05 88 95.05 c
50.64 0 70.57 -23.16 81.36 -95.05 c
h
f
-1914.23 36102.4 m
10.73 2.49 17.33 3.32 26.41 3.32 c
21.45 0 28.88 -13.3 28.88 -53.21 c
0 -210.35 p
0 -44.9 -11.56 -57.37 -57.78 -58.2 c
0 -11.98 184.31 0 ^ p
-44.12 1.66 -56.61 10.82 -56.61 43.27 c
0 234.64 p
0 1.67 6.65 9.98 12.47 15.81 c
20.79 19.14 56.54 33.36 85.64 33.36 c
36.58 0 54.91 -29.2 54.91 -87.44 c
0 -180.55 p
0 -46.59 -9.16 -55.75 -56.56 -59.07 c
0 -11.98 185.97 0 ^ p
-47.1 0.83 -59.49 14.98 -59.49 66.57 c
0 209.67 p
24.8 35.78 52.09 50.83 90.12 50.83 c
47.13 0 62.02 -22.54 62.02 -91.6 c
0 -175.56 p
0 -47.43 -6.61 -54.08 -54.46 -59.91 c
0 -11.98 181.82 0 ^ -21.65 1.66 p
-24.98 1.66 -35.79 16.63 -35.79 49.05 c
0 171.28 p
0 98.11 -32.49 148.02 -96.38 148.02 c
-48.13 0 -90.45 -21.62 -135.26 -69.84 c
-14.94 47.39 -43.15 69.84 -87.96 69.84 c
-36.52 0 -59.75 -11.65 -128.62 -64.03 c
0 62.36 -5.81 1.67 p
-42.32 -15.83 -70.53 -24.97 -116.17 -37.45 c
h
f
-941.27 35908.2 m
-39.85 -63.13 -75.55 -87.21 -128.68 -87.21 c
-47.32 0 -83.02 24.09 -107.1 71.43 c
-14.94 31.57 -20.75 58.98 -22.41 109.65 c
255.71 0 p
-6.64 53.98 -14.95 78.05 -35.7 104.63 c
-24.91 29.9 -63.1 47.35 -106.27 47.35 c
-41.51 0 -80.53 -15.01 -112.08 -43.22 c
-39.02 -34.01 -61.44 -92.92 -61.44 -160.94 c
0 -114.49 59.78 -185.84 155.25 -185.84 c
78.87 0 141.14 48.88 176 138.34 c
h
-1197.81 36029 m
9.13 64.46 37.36 95.05 88 95.05 c
50.64 0 70.57 -23.16 81.36 -95.05 c
h
f
-896.71 36102.4 m
4.95 2.49 13.2 3.32 22.27 3.32 c
23.09 0 30.52 -12.47 30.52 -53.21 c
0 -206.2 p
0 -47.39 -9.08 -59.04 -51.14 -62.36 c
0 -11.98 176 0 ^ p
-42.46 3.32 -54.95 13.3 -54.95 43.2 c
0 233.46 p
39.84 37.38 58.1 47.41 85.49 47.41 c
40.67 0 60.61 -25.8 60.61 -80.64 c
0 -173.64 p
0 -52.34 -10.77 -66.46 -52.12 -69.79 c
0 -11.98 172.68 0 ^ p
-40.68 4.16 -50.64 14.14 -50.64 54.88 c
0 190.4 p
0 78.15 -36.53 124.75 -97.96 124.75 c
-38.19 0 -63.93 -14.14 -120.38 -67.35 c
0 65.68 -5.81 1.67 p
-40.68 -15 -68.91 -24.14 -114.57 -37.45 c
h
f
-278.24 36146 -83.85 0 0 95.93 P
0 8.27 -0.83 10.75 -5.8 10.75 c
-5.8 -7.49 -10.78 -14.96 -16.59 -23.26 c
-31.51 -45.65 -67.17 -85.49 -80.43 -88.81 c
-9.12 -5.81 -14.09 -11.62 -14.09 -15.77 c
0 -2.49 0.82 -4.15 3.29 -5.81 c
43.7 0 0 -249.7 p
0 -69.67 24.93 -105.34 73.94 -105.34 c
40.71 0 72.29 19.84 99.71 62.82 c
-10.81 9.1 p
-17.42 -20.69 -31.52 -28.96 -49.78 -28.96 c
-30.7 0 -43.14 22.4 -43.14 74.68 c
0 237.4 83.85 0 h
f
1.52 36032.7 -3.37 113.33 -9.14 0 -1.66 -1.66 P
-7.48 -5.81 -8.31 -6.64 -11.63 -6.64 c
-4.99 0 -13.3 1.66 -22.44 5.81 c
-18.28 6.38 -36.57 9.5 -58.17 9.5 c
-65.65 0 -113.02 -42.34 -113.02 -102.11 c
0 -46.48 26.63 -79.68 97.35 -119.52 c
48.26 -27.39 p
29.12 -16.6 43.3 -36.52 43.3 -62.25 c
0 -36.52 -26.78 -59.76 -69.4 -59.76 c
-28.42 0 -54.32 10.79 -70.2 29.05 c
-17.55 20.75 -25.07 39.84 -35.93 87.16 c
-13.37 0 0 -129.51 10.84 0 p
5.84 8.3 9.17 9.96 19.18 9.96 c
7.51 0 19.18 -1.66 38.36 -6.64 c
23.35 -4.8 45.86 -7.99 60.87 -7.99 c
64.21 0 117.59 48.14 117.59 106.24 c
0 41.5 -19.93 68.89 -69.69 98.77 c
-89.55 53.12 p
-23.21 13.28 -35.65 34.04 -35.65 56.45 c
0 33.2 25.7 56.45 63.83 56.45 c
47.25 0 72.12 -28.3 91.19 -102.35 c
h
f
q[6850 0 0 -40 -6811 35461]concat
1 1 false[1 0 0 -1 0 0]@X
imagemask
!!~>
Q
Q q
0 0 62076 0 0 28542 ^ Y
K
4974.95 3718.03 m
-82.2 0 -144.96 -25.56 -200.25 -77.85 c
-86.85 -83.67 -143.74 -255.48 -143.74 -430.28 c
0 -162.86 49.31 -337.66 119.55 -421.32 c
55.29 -65.73 131.51 -101.59 218.18 -101.59 c
76.21 0 140.47 25.39 194.27 77.69 c
86.84 82.17 143.74 255.48 143.74 436.26 c
0 306.28 -135.99 517.1 -331.75 517.1 c
h
4970.32 3679.1 m
125.44 0 192.64 -169.01 192.64 -481.18 c
0 -312.18 -65.71 -472 -194.14 -472 c
-128.43 0 -194.12 159.82 -194.12 470.5 c
0 316.66 67.2 482.68 195.62 482.68 c
h
f
10376.8 2903.73 -19.43 7.47 P
-55.29 -84.99 -74.72 -98.41 -141.97 -98.41 c
-357.16 0 251.12 262.89 p
133.04 138.91 191.38 252.42 191.38 368.93 c
0 149.36 -121.09 264.41 -276.55 264.41 c
-82.21 0 -159.94 -32.89 -215.25 -92.62 c
-47.83 -50.77 -70.25 -98.56 -95.66 -204.58 c
31.37 -7.47 p
59.77 146.13 113.55 193.87 216.64 193.87 c
125.5 0 210.68 -85.18 210.68 -210.65 c
0 -116.5 -68.75 -255.42 -194.25 -388.36 c
-265.93 -282.3 0 -17.92 582.82 0 h
f
15445.4 3044.02 -152.52 0 0 665.01 -65.78 0 -469.12 -665.01 0 -95.83 420.11 0 0 -249.19 
114.8 0 ^ 152.52 0 H
15176 3044.02 -358.34 0 358.34 512.77 H
f
20479.7 3730.17 m
-170.36 -15.04 -257.04 -43.43 -366.13 -119.64 c
-161.39 -115.07 -249.56 -285.43 -249.56 -485.68 c
0 -130.01 40.35 -261.52 104.61 -336.24 c
56.79 -65.75 137.48 -101.62 230.14 -101.62 c
185.31 0 313.95 142 313.95 348.28 c
0 191.33 -109.22 312.57 -281.07 312.57 c
-65.75 0 -97.14 -10.72 -191.29 -68.88 c
40.35 226.32 207.72 388.18 442.34 427.15 c
h
20174.7 3278.95 m
128.55 0 203.29 -107.7 203.29 -294.5 c
0 -164.39 -58.3 -255.54 -162.94 -255.54 c
-131.54 0 -212.25 140.47 -212.25 372.11 c
0 76.21 11.95 118.06 41.85 140.47 c
31.39 23.91 77.73 37.46 130.05 37.46 c
h
f
25319.4 3262.18 m
148.05 79.18 200.44 141.94 200.44 243.53 c
0 122.51 -107.75 212.32 -257.37 212.32 c
-163.09 0 -284.28 -100.26 -284.28 -236.22 c
0 -97.11 28.46 -140.44 185.8 -277.89 c
-161.17 -122.51 -193.99 -168.82 -193.99 -270.42 c
0 -144.92 118 -246.51 286.79 -246.51 c
179.24 0 294.26 98.6 294.26 252.49 c
0 115.04 -50.81 188.25 -231.63 322.71 c
h
25292.5 3108.49 m
109.09 -77.71 144.96 -131.51 144.96 -215.2 c
0 -97.14 -67.25 -164.38 -164.38 -164.38 c
-113.57 0 -189.79 86.68 -189.79 216.69 c
0 95.64 32.88 158.41 119.55 228.66 c
h
25276.2 3289.32 m
-133.29 86.61 -187.21 155.3 -187.21 238.93 c
0 86.61 67.39 147.85 161.75 147.85 c
101.85 0 166.29 -65.72 166.29 -168.76 c
0 -85.12 -41.98 -152.32 -127.35 -209.06 c
-7.49 -4.48 -7.49 -4.48 -13.48 -8.96 c
h
f
30020 3718.03 -269.12 -135.99 0 -20.96 P
17.91 7.52 34.34 13.54 40.31 16.55 c
26.88 10.53 52.27 16.55 67.2 16.55 c
31.36 0 44.82 -22.46 44.82 -70.31 c
0 -677.29 p
0 -49.34 -11.96 -83.73 -35.86 -97.18 c
-22.4 -13.46 -43.3 -17.94 -106.02 -19.43 c
0 -21.96 412.45 0 ^ p
-117.93 1.5 -141.81 16.44 -141.81 88.19 c
0 896.86 h
f
30715 3718.03 m
-82.2 0 -144.96 -25.56 -200.25 -77.85 c
-86.85 -83.67 -143.74 -255.48 -143.74 -430.28 c
0 -162.86 49.31 -337.66 119.55 -421.32 c
55.29 -65.73 131.51 -101.59 218.18 -101.59 c
76.21 0 140.47 25.39 194.27 77.69 c
86.84 82.17 143.74 255.48 143.74 436.26 c
0 306.28 -135.99 517.1 -331.75 517.1 c
h
30710.3 3679.1 m
125.44 0 192.64 -169.01 192.64 -481.18 c
0 -312.18 -65.71 -472 -194.14 -472 c
-128.43 0 -194.12 159.82 -194.12 470.5 c
0 316.66 67.2 482.68 195.62 482.68 c
h
f
15614 981.95 m
-67.25 4.47 -82.19 19.39 -134.5 129.76 c
-372.11 847.34 -29.89 0 -310.84 -732.49 p
-95.64 -217.76 -113.57 -241.62 -185.3 -244.61 c
0 -29.95 295.89 0 ^ p
-71.73 0 -101.62 19.34 -101.62 60.98 c
0 17.85 4.48 38.68 11.96 58.02 c
68.74 174.04 391.53 0 61.27 -142.8 p
17.93 -40.16 28.39 -78.84 28.39 -99.66 c
0 -37.18 -25.41 -49.09 -104.61 -50.57 c
0 -29.95 381.07 0 h
14881.8 1335.88 171.86 411.14 173.35 -411.14 H
f
16341.4 1532.03 0 57.89 -115.15 0 P
-29.88 0 -52.28 4.45 -82.15 14.86 c
-32.86 11.89 p
-40.33 14.86 -80.66 22.29 -119.49 22.29 c
-138.92 0 -249.45 -107.67 -249.45 -243.59 c
0 -94.1 40.33 -150.86 138.91 -200.15 c
-28.38 -26.89 -55.27 -52.28 -64.23 -59.75 c
-49.29 -43.32 -68.71 -73.19 -68.71 -103.06 c
0 -31.37 17.92 -49.29 79.16 -79.17 c
-106.05 -77.67 -146.37 -126.96 -146.37 -182.23 c
0 -79.16 116.53 -144.88 258.46 -144.88 c
112.05 0 228.59 38.85 306.32 101.62 c
56.71 46.33 82.1 94.15 82.1 150.93 c
0 92.65 -70.23 155.42 -180.82 159.9 c
-192.78 8.96 p
-79.2 2.99 -116.57 16.44 -116.57 40.35 c
0 29.89 49.32 82.19 89.66 94.24 c
13.45 -1.43 23.91 -2.86 28.39 -2.86 c
28.39 -2.86 47.82 -4.28 56.79 -4.28 c
55.29 0 115.07 22.4 161.39 62.73 c
49.31 41.83 71.82 94.1 71.82 168.79 c
0 43.32 -7.5 77.68 -28.49 125.52 c
h
15859 949.01 m
49.27 -10.5 168.7 -19.48 241.86 -19.48 c
135.86 0 185.14 -19.46 185.14 -73.35 c
0 -86.82 -113.48 -145.2 -282.18 -145.2 c
-131.38 0 -217.96 43.41 -217.96 109.27 c
0 34.44 10.45 53.89 73.15 128.77 c
h
15866.1 1456.71 m
0 88.06 41.89 140.32 110.72 140.32 c
46.38 0 85.28 -25.39 109.22 -70.16 c
26.93 -52.24 44.94 -120.9 44.94 -179.11 c
0 -83.58 -43.44 -135.82 -112.27 -135.82 c
-89.77 0 -152.61 97.01 -152.61 240.3 c
h
f
16998.7 1197.08 m
-71.73 -113.86 -135.99 -157.3 -231.63 -157.3 c
-85.18 0 -149.44 43.4 -192.78 128.71 c
-26.9 56.87 -37.36 106.25 -40.35 197.56 c
460.27 0 p
-11.95 96.92 -26.9 140.16 -64.26 187.88 c
-44.83 53.68 -113.57 85.04 -191.28 85.04 c
-74.72 0 -144.96 -27.02 -201.75 -77.8 c
-70.24 -61.22 -110.59 -167.25 -110.59 -289.7 c
0 -206.08 107.6 -334.5 279.45 -334.5 c
141.97 0 254.05 88.19 316.81 249.63 c
h
16537 1413.96 m
16.44 116.02 67.25 171.1 158.41 171.1 c
91.16 0 127.02 -41.69 146.45 -171.1 c
h
f
17865.8 756 -128.59 0 P
-49.32 0 -73.24 25.41 -73.24 77.72 c
0 1004.48 p
0 46.34 19.43 65.88 67.26 65.88 c
134.58 0 0 36.93 -315.63 0 0 -1221.95 ^ h
f
18978.5 1481.02 -381.07 0 0 -27 P
64.26 -4.48 82.19 -8.96 100.13 -20.91 c
22.42 -13.45 31.38 -47.81 31.38 -112.05 c
0 -242.04 p
0 -47.81 -91.13 -88.14 -198.62 -88.14 c
-243.35 0 -392.64 170.27 -392.64 448.1 c
0 140.4 41.81 276.33 107.52 349.52 c
65.71 73.19 158.29 113.64 259.83 113.64 c
83.63 0 156.8 -28.37 215.04 -82.11 c
44.8 -41.79 68.7 -82.09 106.03 -173.14 c
34.36 0 -11.98 315.13 -32.87 0 p
-8.97 -28.39 -35.86 -49.32 -67.23 -49.32 c
-14.95 0 -38.85 4.48 -65.74 14.95 c
-67.23 22.42 -135.96 34.37 -203.19 34.37 c
-298.8 0 -512.45 -219.78 -512.45 -524.57 c
0 -146.41 40.32 -258.46 123.97 -346.61 c
100.08 -103.09 243.47 -159.86 407.77 -159.86 c
128.46 0 315.17 52.3 374.96 104.61 c
0 303.36 p
0 88.17 17.96 107.6 104.82 115.07 c
h
f
19708.8 1624.01 -201.74 0 0 -22.41 P
47.82 0 71.73 -13.44 71.73 -37.32 c
0 -5.97 -1.5 -14.93 -5.98 -25.38 c
-144.96 -412.05 -171.86 377.71 p
-8.96 20.9 -14.94 40.31 -14.94 56.73 c
0 26.87 22.41 37.32 86.68 40.31 c
0 22.41 -307.85 0 0 -21.02 p
38.86 -5.98 64.26 -22.41 76.21 -47.79 c
170.36 -367.36 4.48 -11.95 22.42 -44.8 p
41.84 -74.67 65.75 -128.43 65.75 -150.82 c
0 -22.4 -34.37 -116.48 -59.78 -161.28 c
-20.92 -38.82 -53.8 -67.2 -74.72 -67.2 c
-8.97 0 -22.42 2.98 -37.36 10.44 c
-28.39 10.44 -53.8 16.4 -79.2 16.4 c
-34.37 0 -64.26 -29.93 -64.26 -65.84 c
0 -49.38 47.82 -86.78 110.59 -86.78 c
100.13 0 171.86 83.64 252.55 298.73 c
230.14 609.42 p
19.43 47.8 35.86 62.73 71.73 67.21 c
h
f
19759.5 1534.22 m
20.84 4.48 34.25 5.98 52.12 5.98 c
37.23 0 50.65 -23.91 50.65 -89.64 c
0 -373.51 p
0 -74.7 -10.45 -85.16 -105.76 -103.09 c
0 -21.96 358.66 0 ^ p
-101.7 4.48 -127.12 26.89 -127.12 112.05 c
0 336.16 p
0 47.81 64.27 122.51 104.63 122.51 c
8.97 0 22.42 -7.47 38.87 -22.41 c
23.92 -20.92 40.36 -29.88 59.79 -29.88 c
35.88 0 58.33 25.4 58.33 67.23 c
0 49.3 -31.43 79.34 -82.25 79.34 c
-62.78 0 -106.12 -34.27 -179.37 -140.01 c
0 137.01 -7.49 3 p
-79.16 -33.02 -132.94 -52.45 -221.06 -80.83 c
h
f
20299.8 756 0 -36.94 315.23 0 0 1221.95 ^ 0 -36.93 128.3 0 P
49.23 0 73.13 -25.52 73.13 -77.84 c
0 -1004.48 p
0 -46.34 -20.91 -65.76 -67.17 -65.76 c
h
f
4267.95 4720.03 m
-82.2 0 -144.96 -25.56 -200.25 -77.85 c
-86.85 -83.67 -143.74 -255.48 -143.74 -430.28 c
0 -162.86 49.31 -337.66 119.55 -421.32 c
55.29 -65.73 131.51 -101.59 218.18 -101.59 c
76.21 0 140.47 25.39 194.27 77.69 c
86.84 82.17 143.74 255.48 143.74 436.26 c
0 306.28 -135.99 517.1 -331.75 517.1 c
h
4263.32 4681.1 m
125.44 0 192.64 -169.01 192.64 -481.18 c
0 -312.18 -65.71 -472 -194.14 -472 c
-128.43 0 -194.12 159.82 -194.12 470.5 c
0 316.66 67.2 482.68 195.62 482.68 c
h
f
3850.84 7789.73 -19.43 7.47 P
-55.29 -84.99 -74.72 -98.41 -141.97 -98.41 c
-357.16 0 251.12 262.89 p
133.04 138.91 191.38 252.42 191.38 368.93 c
0 149.36 -121.09 264.41 -276.55 264.41 c
-82.21 0 -159.94 -32.89 -215.25 -92.62 c
-47.83 -50.77 -70.25 -98.56 -95.66 -204.58 c
31.37 -7.47 p
59.77 146.13 113.55 193.87 216.64 193.87 c
125.5 0 210.68 -85.18 210.68 -210.65 c
0 -116.5 -68.75 -255.42 -194.25 -388.36 c
-265.93 -282.3 0 -17.92 582.82 0 h
f
4270.95 8595.03 m
-82.2 0 -144.96 -25.56 -200.25 -77.85 c
-86.85 -83.67 -143.74 -255.48 -143.74 -430.28 c
0 -162.86 49.31 -337.66 119.55 -421.32 c
55.29 -65.73 131.51 -101.59 218.18 -101.59 c
76.21 0 140.47 25.39 194.27 77.69 c
86.84 82.17 143.74 255.48 143.74 436.26 c
0 306.28 -135.99 517.1 -331.75 517.1 c
h
4266.32 8556.1 m
125.44 0 192.64 -169.01 192.64 -481.18 c
0 -312.18 -65.71 -472 -194.14 -472 c
-128.43 0 -194.12 159.82 -194.12 470.5 c
0 316.66 67.2 482.68 195.62 482.68 c
h
f
3846.36 11805 -152.52 0 0 665.01 -65.78 0 -469.12 -665.01 0 -95.83 420.11 0 0 -249.19 
114.8 0 ^ 152.52 0 H
3577.04 11805 -358.34 0 358.34 512.77 H
f
4270.95 12470 m
-82.2 0 -144.96 -25.56 -200.25 -77.85 c
-86.85 -83.67 -143.74 -255.48 -143.74 -430.28 c
0 -162.86 49.31 -337.66 119.55 -421.32 c
55.29 -65.73 131.51 -101.59 218.18 -101.59 c
76.21 0 140.47 25.39 194.27 77.69 c
86.84 82.17 143.74 255.48 143.74 436.26 c
0 306.28 -135.99 517.1 -331.75 517.1 c
h
4266.32 12431.1 m
125.44 0 192.64 -169.01 192.64 -481.18 c
0 -312.18 -65.71 -472 -194.14 -472 c
-128.43 0 -194.12 159.82 -194.12 470.5 c
0 316.66 67.2 482.68 195.62 482.68 c
h
f
3807.73 16357.2 m
-170.36 -15.04 -257.04 -43.43 -366.13 -119.64 c
-161.39 -115.07 -249.56 -285.43 -249.56 -485.68 c
0 -130.01 40.35 -261.52 104.61 -336.24 c
56.79 -65.75 137.48 -101.62 230.14 -101.62 c
185.31 0 313.95 142 313.95 348.28 c
0 191.33 -109.22 312.57 -281.07 312.57 c
-65.75 0 -97.14 -10.72 -191.29 -68.88 c
40.35 226.32 207.72 388.18 442.34 427.15 c
h
3502.69 15906 m
128.55 0 203.29 -107.7 203.29 -294.5 c
0 -164.39 -58.3 -255.54 -162.94 -255.54 c
-131.54 0 -212.25 140.47 -212.25 372.11 c
0 76.21 11.95 118.06 41.85 140.47 c
31.39 23.91 77.73 37.46 130.05 37.46 c
h
f
4270.95 16345 m
-82.2 0 -144.96 -25.56 -200.25 -77.85 c
-86.85 -83.67 -143.74 -255.48 -143.74 -430.28 c
0 -162.86 49.31 -337.66 119.55 -421.32 c
55.29 -65.73 131.51 -101.59 218.18 -101.59 c
76.21 0 140.47 25.39 194.27 77.69 c
86.84 82.17 143.74 255.48 143.74 436.26 c
0 306.28 -135.99 517.1 -331.75 517.1 c
h
4266.32 16306.1 m
125.44 0 192.64 -169.01 192.64 -481.18 c
0 -312.18 -65.71 -472 -194.14 -472 c
-128.43 0 -194.12 159.82 -194.12 470.5 c
0 316.66 67.2 482.68 195.62 482.68 c
h
f
3574.38 19764.2 m
148.05 79.18 200.44 141.94 200.44 243.53 c
0 122.51 -107.75 212.32 -257.37 212.32 c
-163.09 0 -284.28 -100.26 -284.28 -236.22 c
0 -97.11 28.46 -140.44 185.8 -277.89 c
-161.17 -122.51 -193.99 -168.82 -193.99 -270.42 c
0 -144.92 118 -246.51 286.79 -246.51 c
179.24 0 294.26 98.6 294.26 252.49 c
0 115.04 -50.81 188.25 -231.63 322.71 c
h
3547.48 19610.5 m
109.09 -77.71 144.96 -131.51 144.96 -215.2 c
0 -97.14 -67.25 -164.38 -164.38 -164.38 c
-113.57 0 -189.79 86.68 -189.79 216.69 c
0 95.64 32.88 158.41 119.55 228.66 c
h
3531.17 19791.3 m
-133.29 86.61 -187.21 155.3 -187.21 238.93 c
0 86.61 67.39 147.85 161.75 147.85 c
101.85 0 166.29 -65.72 166.29 -168.76 c
0 -85.12 -41.98 -152.32 -127.35 -209.06 c
-7.49 -4.48 -7.49 -4.48 -13.48 -8.96 c
h
f
4270.95 20220 m
-82.2 0 -144.96 -25.56 -200.25 -77.85 c
-86.85 -83.67 -143.74 -255.48 -143.74 -430.28 c
0 -162.86 49.31 -337.66 119.55 -421.32 c
55.29 -65.73 131.51 -101.59 218.18 -101.59 c
76.21 0 140.47 25.39 194.27 77.69 c
86.84 82.17 143.74 255.48 143.74 436.26 c
0 306.28 -135.99 517.1 -331.75 517.1 c
h
4266.32 20181.1 m
125.44 0 192.64 -169.01 192.64 -481.18 c
0 -312.18 -65.71 -472 -194.14 -472 c
-128.43 0 -194.12 159.82 -194.12 470.5 c
0 316.66 67.2 482.68 195.62 482.68 c
h
f
2828 24095 -269.12 -135.99 0 -20.96 P
17.91 7.52 34.34 13.54 40.31 16.55 c
26.88 10.53 52.27 16.55 67.2 16.55 c
31.36 0 44.82 -22.46 44.82 -70.31 c
0 -677.29 p
0 -49.34 -11.96 -83.73 -35.86 -97.18 c
-22.4 -13.46 -43.3 -17.94 -106.02 -19.43 c
0 -21.96 412.45 0 ^ p
-117.93 1.5 -141.81 16.44 -141.81 88.19 c
0 896.86 h
f
3522.95 24095 m
-82.2 0 -144.96 -25.56 -200.25 -77.85 c
-86.85 -83.67 -143.74 -255.48 -143.74 -430.28 c
0 -162.86 49.31 -337.66 119.55 -421.32 c
55.29 -65.73 131.51 -101.59 218.18 -101.59 c
76.21 0 140.47 25.39 194.27 77.69 c
86.84 82.17 143.74 255.48 143.74 436.26 c
0 306.28 -135.99 517.1 -331.75 517.1 c
h
3518.32 24056.1 m
125.44 0 192.64 -169.01 192.64 -481.18 c
0 -312.18 -65.71 -472 -194.14 -472 c
-128.43 0 -194.12 159.82 -194.12 470.5 c
0 316.66 67.2 482.68 195.62 482.68 c
h
f
4272.95 24095 m
-82.2 0 -144.96 -25.56 -200.25 -77.85 c
-86.85 -83.67 -143.74 -255.48 -143.74 -430.28 c
0 -162.86 49.31 -337.66 119.55 -421.32 c
55.29 -65.73 131.51 -101.59 218.18 -101.59 c
76.21 0 140.47 25.39 194.27 77.69 c
86.84 82.17 143.74 255.48 143.74 436.26 c
0 306.28 -135.99 517.1 -331.75 517.1 c
h
4268.32 24056.1 m
125.44 0 192.64 -169.01 192.64 -481.18 c
0 -312.18 -65.71 -472 -194.14 -472 c
-128.43 0 -194.12 159.82 -194.12 470.5 c
0 316.66 67.2 482.68 195.62 482.68 c
h
f
2828 27970 -269.12 -135.99 0 -20.96 P
17.91 7.52 34.34 13.54 40.31 16.55 c
26.88 10.53 52.27 16.55 67.2 16.55 c
31.36 0 44.82 -22.46 44.82 -70.31 c
0 -677.29 p
0 -49.34 -11.96 -83.73 -35.86 -97.18 c
-22.4 -13.46 -43.3 -17.94 -106.02 -19.43 c
0 -21.96 412.45 0 ^ p
-117.93 1.5 -141.81 16.44 -141.81 88.19 c
0 896.86 h
f
3852.84 27164.7 -19.43 7.47 P
-55.29 -84.99 -74.72 -98.41 -141.97 -98.41 c
-357.16 0 251.12 262.89 p
133.04 138.91 191.38 252.42 191.38 368.93 c
0 149.36 -121.09 264.41 -276.55 264.41 c
-82.21 0 -159.94 -32.89 -215.25 -92.62 c
-47.83 -50.77 -70.25 -98.56 -95.66 -204.58 c
31.37 -7.47 p
59.77 146.13 113.55 193.87 216.64 193.87 c
125.5 0 210.68 -85.18 210.68 -210.65 c
0 -116.5 -68.75 -255.42 -194.25 -388.36 c
-265.93 -282.3 0 -17.92 582.82 0 h
f
4272.95 27970 m
-82.2 0 -144.96 -25.56 -200.25 -77.85 c
-86.85 -83.67 -143.74 -255.48 -143.74 -430.28 c
0 -162.86 49.31 -337.66 119.55 -421.32 c
55.29 -65.73 131.51 -101.59 218.18 -101.59 c
76.21 0 140.47 25.39 194.27 77.69 c
86.84 82.17 143.74 255.48 143.74 436.26 c
0 306.28 -135.99 517.1 -331.75 517.1 c
h
4268.32 27931.1 m
125.44 0 192.64 -169.01 192.64 -481.18 c
0 -312.18 -65.71 -472 -194.14 -472 c
-128.43 0 -194.12 159.82 -194.12 470.5 c
0 316.66 67.2 482.68 195.62 482.68 c
h
f
446.97 15753.3 0 -379.32 24.14 0 P
8.97 94.28 20.93 115.26 61.3 115.26 c
20.93 0 53.82 -5.98 95.69 -17.93 c
695.23 -195.77 p
58.31 -16.44 80.73 -37.36 80.73 -73.23 c
0 -35.86 -19.48 -52.3 -59.95 -52.3 c
-7.49 0 -13.48 0 -22.48 0 c
-13.49 0 p
-37.46 0 -70.46 -33.97 -70.46 -70.87 c
0 -39.85 32.93 -67.88 80.76 -67.88 c
77.73 0 131.54 69.86 131.54 173.91 c
0 75.8 -29.89 142.69 -85.2 188.82 c
-47.83 40.47 -115.1 70.46 -228.7 101.94 c
-554.55 154.41 p
-89.69 26.98 -98.66 37.48 -110.61 122.97 c
h
f
1635.31 16267 m
-3.32 -49.32 -22.11 -71.74 -79.6 -93.03 c
-270.87 -101.6 p
-18.8 84.94 -34.27 121.35 -69.65 161.06 c
-32.06 36.41 -75.18 56.3 -124.93 56.3 c
-102.82 0 -159.25 -81.9 -159.25 -229.95 c
0 -273.99 17.57 0 p
6.58 46.41 7.68 51.93 15.36 62.98 c
5.64 8.84 18.91 15.47 31.07 15.47 c
13.27 0 39.81 -5.53 69.67 -13.26 c
488.79 -135.89 p
65.25 -19.89 71.88 -27.62 81.83 -89.48 c
17.7 0 0 269.83 ^ p
-8.84 -67.46 -14.37 -75.2 -50.87 -75.2 c
-11.06 0 -25.43 3.32 -64.14 13.27 c
-231.12 61.93 5.53 71.88 358.3 136.02 0 163.67 h
994.95 15980.5 m
-23.23 6.63 -31.01 21 -31.01 56.36 c
0 91.71 42.07 137.08 123.93 137.08 c
109.51 0 165.92 -70.78 165.92 -208.91 c
0 -17.68 -1.11 -29.84 -5.53 -56.36 c
h
f
35410.9 3718.03 m
-82.2 0 -144.96 -25.56 -200.25 -77.85 c
-86.85 -83.67 -143.74 -255.48 -143.74 -430.28 c
0 -162.86 49.31 -337.66 119.55 -421.32 c
55.29 -65.73 131.51 -101.59 218.18 -101.59 c
76.21 0 140.47 25.39 194.27 77.69 c
86.84 82.17 143.74 255.48 143.74 436.26 c
0 306.28 -135.99 517.1 -331.75 517.1 c
h
35406.3 3679.1 m
125.44 0 192.64 -169.01 192.64 -481.18 c
0 -312.18 -65.71 -472 -194.14 -472 c
-128.43 0 -194.12 159.82 -194.12 470.5 c
0 316.66 67.2 482.68 195.62 482.68 c
h
f
40813.8 2903.73 -19.43 7.47 P
-55.29 -84.99 -74.72 -98.41 -141.97 -98.41 c
-357.16 0 251.12 262.89 p
133.04 138.91 191.38 252.42 191.38 368.93 c
0 149.36 -121.09 264.41 -276.55 264.41 c
-82.21 0 -159.94 -32.89 -215.25 -92.62 c
-47.83 -50.77 -70.25 -98.56 -95.66 -204.58 c
31.37 -7.47 p
59.77 146.13 113.55 193.87 216.64 193.87 c
125.5 0 210.68 -85.18 210.68 -210.65 c
0 -116.5 -68.75 -255.42 -194.25 -388.36 c
-265.93 -282.3 0 -17.92 582.82 0 h
f
45881.4 3044.02 -152.52 0 0 665.01 -65.78 0 -469.12 -665.01 0 -95.83 420.11 0 0 -249.19 
114.8 0 ^ 152.52 0 H
45612 3044.02 -358.34 0 358.34 512.77 H
f
50915.7 3730.17 m
-170.36 -15.04 -257.04 -43.43 -366.13 -119.64 c
-161.39 -115.07 -249.56 -285.43 -249.56 -485.68 c
0 -130.01 40.35 -261.52 104.61 -336.24 c
56.79 -65.75 137.48 -101.62 230.14 -101.62 c
185.31 0 313.95 142 313.95 348.28 c
0 191.33 -109.22 312.57 -281.07 312.57 c
-65.75 0 -97.14 -10.72 -191.29 -68.88 c
40.35 226.32 207.72 388.18 442.34 427.15 c
h
50610.7 3278.95 m
128.55 0 203.29 -107.7 203.29 -294.5 c
0 -164.39 -58.3 -255.54 -162.94 -255.54 c
-131.54 0 -212.25 140.47 -212.25 372.11 c
0 76.21 11.95 118.06 41.85 140.47 c
31.39 23.91 77.73 37.46 130.05 37.46 c
h
f
55755.4 3262.18 m
148.05 79.18 200.44 141.94 200.44 243.53 c
0 122.51 -107.75 212.32 -257.37 212.32 c
-163.09 0 -284.28 -100.26 -284.28 -236.22 c
0 -97.11 28.46 -140.44 185.8 -277.89 c
-161.17 -122.51 -193.99 -168.82 -193.99 -270.42 c
0 -144.92 118 -246.51 286.79 -246.51 c
179.24 0 294.26 98.6 294.26 252.49 c
0 115.04 -50.81 188.25 -231.63 322.71 c
h
55728.5 3108.49 m
109.09 -77.71 144.96 -131.51 144.96 -215.2 c
0 -97.14 -67.25 -164.38 -164.38 -164.38 c
-113.57 0 -189.79 86.68 -189.79 216.69 c
0 95.64 32.88 158.41 119.55 228.66 c
h
55712.2 3289.32 m
-133.29 86.61 -187.21 155.3 -187.21 238.93 c
0 86.61 67.39 147.85 161.75 147.85 c
101.85 0 166.29 -65.72 166.29 -168.76 c
0 -85.12 -41.98 -152.32 -127.35 -209.06 c
-7.49 -4.48 -7.49 -4.48 -13.48 -8.96 c
h
f
60456 3718.03 -269.12 -135.99 0 -20.96 P
17.91 7.52 34.34 13.54 40.31 16.55 c
26.88 10.53 52.27 16.55 67.2 16.55 c
31.36 0 44.82 -22.46 44.82 -70.31 c
0 -677.29 p
0 -49.34 -11.96 -83.73 -35.86 -97.18 c
-22.4 -13.46 -43.3 -17.94 -106.02 -19.43 c
0 -21.96 412.45 0 ^ p
-117.93 1.5 -141.81 16.44 -141.81 88.19 c
0 896.86 h
f
61150.9 3718.03 m
-82.2 0 -144.96 -25.56 -200.25 -77.85 c
-86.85 -83.67 -143.74 -255.48 -143.74 -430.28 c
0 -162.86 49.31 -337.66 119.55 -421.32 c
55.29 -65.73 131.51 -101.59 218.18 -101.59 c
76.21 0 140.47 25.39 194.27 77.69 c
86.84 82.17 143.74 255.48 143.74 436.26 c
0 306.28 -135.99 517.1 -331.75 517.1 c
h
61146.3 3679.1 m
125.44 0 192.64 -169.01 192.64 -481.18 c
0 -312.18 -65.71 -472 -194.14 -472 c
-128.43 0 -194.12 159.82 -194.12 470.5 c
0 316.66 67.2 482.68 195.62 482.68 c
h
f
46050.1 971.95 m
-67.25 4.47 -82.19 19.39 -134.5 129.76 c
-372.11 847.34 -29.89 0 -310.84 -732.49 p
-95.64 -217.76 -113.57 -241.62 -185.3 -244.61 c
0 -29.95 295.89 0 ^ p
-71.73 0 -101.62 19.34 -101.62 60.98 c
0 17.85 4.48 38.68 11.96 58.02 c
68.74 174.04 391.53 0 61.27 -142.8 p
17.93 -40.16 28.39 -78.84 28.39 -99.66 c
0 -37.18 -25.41 -49.09 -104.61 -50.57 c
0 -29.95 381.07 0 h
45317.8 1325.88 171.86 411.14 173.35 -411.14 H
f
46777.4 1522.03 0 57.89 -115.15 0 P
-29.88 0 -52.28 4.45 -82.15 14.86 c
-32.86 11.89 p
-40.33 14.86 -80.66 22.29 -119.49 22.29 c
-138.92 0 -249.45 -107.67 -249.45 -243.59 c
0 -94.1 40.33 -150.86 138.91 -200.15 c
-28.38 -26.89 -55.27 -52.28 -64.23 -59.75 c
-49.29 -43.32 -68.71 -73.19 -68.71 -103.06 c
0 -31.37 17.92 -49.29 79.16 -79.17 c
-106.05 -77.67 -146.37 -126.96 -146.37 -182.23 c
0 -79.16 116.53 -144.88 258.46 -144.88 c
112.05 0 228.59 38.85 306.32 101.62 c
56.71 46.33 82.1 94.15 82.1 150.93 c
0 92.65 -70.23 155.42 -180.82 159.9 c
-192.78 8.96 p
-79.2 2.99 -116.57 16.44 -116.57 40.35 c
0 29.89 49.32 82.19 89.66 94.24 c
13.45 -1.43 23.91 -2.86 28.39 -2.86 c
28.39 -2.86 47.82 -4.28 56.79 -4.28 c
55.29 0 115.07 22.4 161.39 62.73 c
49.31 41.83 71.82 94.1 71.82 168.79 c
0 43.32 -7.5 77.68 -28.49 125.52 c
h
46295 939.01 m
49.27 -10.5 168.7 -19.48 241.86 -19.48 c
135.86 0 185.14 -19.46 185.14 -73.35 c
0 -86.82 -113.48 -145.2 -282.18 -145.2 c
-131.38 0 -217.96 43.41 -217.96 109.27 c
0 34.44 10.45 53.89 73.15 128.77 c
h
46302.2 1446.71 m
0 88.06 41.89 140.32 110.72 140.32 c
46.38 0 85.28 -25.39 109.22 -70.16 c
26.93 -52.24 44.94 -120.9 44.94 -179.11 c
0 -83.58 -43.44 -135.82 -112.27 -135.82 c
-89.77 0 -152.61 97.01 -152.61 240.3 c
h
f
47434.7 1187.08 m
-71.73 -113.86 -135.99 -157.3 -231.63 -157.3 c
-85.18 0 -149.44 43.4 -192.78 128.71 c
-26.9 56.87 -37.36 106.25 -40.35 197.56 c
460.27 0 p
-11.95 96.92 -26.9 140.16 -64.26 187.88 c
-44.83 53.68 -113.57 85.04 -191.28 85.04 c
-74.72 0 -144.96 -27.02 -201.75 -77.8 c
-70.24 -61.22 -110.59 -167.25 -110.59 -289.7 c
0 -206.08 107.6 -334.5 279.45 -334.5 c
141.97 0 254.05 88.19 316.81 249.63 c
h
46972.9 1403.96 m
16.44 116.02 67.25 171.1 158.41 171.1 c
91.16 0 127.02 -41.69 146.45 -171.1 c
h
f
48301.8 746 -128.59 0 P
-49.32 0 -73.24 25.41 -73.24 77.72 c
0 1004.48 p
0 46.34 19.43 65.88 67.26 65.88 c
134.58 0 0 36.93 -315.63 0 0 -1221.95 ^ h
f
49414.5 1471.02 -381.07 0 0 -27 P
64.26 -4.48 82.19 -8.96 100.13 -20.91 c
22.42 -13.45 31.38 -47.81 31.38 -112.05 c
0 -242.04 p
0 -47.81 -91.13 -88.14 -198.62 -88.14 c
-243.35 0 -392.64 170.27 -392.64 448.1 c
0 140.4 41.81 276.33 107.52 349.52 c
65.71 73.19 158.29 113.64 259.83 113.64 c
83.63 0 156.8 -28.37 215.04 -82.11 c
44.8 -41.79 68.7 -82.09 106.03 -173.14 c
34.36 0 -11.98 315.13 -32.87 0 p
-8.97 -28.39 -35.86 -49.32 -67.23 -49.32 c
-14.95 0 -38.85 4.48 -65.74 14.95 c
-67.23 22.42 -135.96 34.37 -203.19 34.37 c
-298.8 0 -512.45 -219.78 -512.45 -524.57 c
0 -146.41 40.32 -258.46 123.97 -346.61 c
100.08 -103.09 243.47 -159.86 407.77 -159.86 c
128.46 0 315.17 52.3 374.96 104.61 c
0 303.36 p
0 88.17 17.96 107.6 104.82 115.07 c
h
f
50144.8 1614.01 -201.74 0 0 -22.41 P
47.82 0 71.73 -13.44 71.73 -37.32 c
0 -5.97 -1.5 -14.93 -5.98 -25.38 c
-144.96 -412.05 -171.86 377.71 p
-8.96 20.9 -14.94 40.31 -14.94 56.73 c
0 26.87 22.41 37.32 86.68 40.31 c
0 22.41 -307.85 0 0 -21.02 p
38.86 -5.98 64.26 -22.41 76.21 -47.79 c
170.36 -367.36 4.48 -11.95 22.42 -44.8 p
41.84 -74.67 65.75 -128.43 65.75 -150.82 c
0 -22.4 -34.37 -116.48 -59.78 -161.28 c
-20.92 -38.82 -53.8 -67.2 -74.72 -67.2 c
-8.97 0 -22.42 2.98 -37.36 10.44 c
-28.39 10.44 -53.8 16.4 -79.2 16.4 c
-34.37 0 -64.26 -29.93 -64.26 -65.84 c
0 -49.38 47.82 -86.78 110.59 -86.78 c
100.13 0 171.86 83.64 252.55 298.73 c
230.14 609.42 p
19.43 47.8 35.86 62.73 71.73 67.21 c
h
f
50195.5 1524.22 m
20.84 4.48 34.25 5.98 52.12 5.98 c
37.23 0 50.65 -23.91 50.65 -89.64 c
0 -373.51 p
0 -74.7 -10.45 -85.16 -105.76 -103.09 c
0 -21.96 358.66 0 ^ p
-101.7 4.48 -127.12 26.89 -127.12 112.05 c
0 336.16 p
0 47.81 64.27 122.51 104.63 122.51 c
8.97 0 22.42 -7.47 38.87 -22.41 c
23.92 -20.92 40.36 -29.88 59.79 -29.88 c
35.88 0 58.33 25.4 58.33 67.23 c
0 49.3 -31.43 79.34 -82.25 79.34 c
-62.78 0 -106.12 -34.27 -179.37 -140.01 c
0 137.01 -7.49 3 p
-79.16 -33.02 -132.94 -52.45 -221.06 -80.83 c
h
f
50735.8 746 0 -36.94 315.23 0 0 1221.95 ^ 0 -36.93 128.3 0 P
49.23 0 73.13 -25.52 73.13 -77.84 c
0 -1004.48 p
0 -46.34 -20.91 -65.76 -67.17 -65.76 c
h
f
34703.9 4720.03 m
-82.2 0 -144.96 -25.56 -200.25 -77.85 c
-86.85 -83.67 -143.74 -255.48 -143.74 -430.28 c
0 -162.86 49.31 -337.66 119.55 -421.32 c
55.29 -65.73 131.51 -101.59 218.18 -101.59 c
76.21 0 140.47 25.39 194.27 77.69 c
86.84 82.17 143.74 255.48 143.74 436.26 c
0 306.28 -135.99 517.1 -331.75 517.1 c
h
34699.3 4681.1 m
125.44 0 192.64 -169.01 192.64 -481.18 c
0 -312.18 -65.71 -472 -194.14 -472 c
-128.43 0 -194.12 159.82 -194.12 470.5 c
0 316.66 67.2 482.68 195.62 482.68 c
h
f
34594.5 7903.22 292.9 0 P
23.91 0 29.89 2.99 34.37 13.45 c
56.79 133 -13.45 10.47 p
-22.41 -31.61 -37.36 -39.14 -68.74 -39.14 c
-312.33 0 -162.89 -354.37 p
-1.5 -2.99 -1.5 -4.48 -1.5 -7.47 c
0 -7.47 5.97 -11.96 17.92 -11.96 c
47.79 0 107.52 -10.46 168.74 -29.89 c
171.73 -55.29 250.9 -147.95 250.9 -295.89 c
0 -143.46 -91.15 -255.54 -207.63 -255.54 c
-29.87 0 -55.25 10.51 -100.05 43.56 c
-47.79 34.55 -82.13 49.58 -113.49 49.58 c
-43.3 0 -64.21 -17.97 -64.21 -55.34 c
0 -56.81 70.22 -92.7 182.27 -92.7 c
125.5 0 233.07 40.35 307.77 116.56 c
68.72 67.25 100.15 152.43 100.15 266 c
0 107.6 -28.87 176.34 -104.81 251.06 c
-65.43 65.75 -150.13 100.13 -325.48 131.51 c
h
f
34012 11363 -269.12 -135.99 0 -20.96 P
17.91 7.52 34.34 13.54 40.31 16.55 c
26.88 10.53 52.27 16.55 67.2 16.55 c
31.36 0 44.82 -22.46 44.82 -70.31 c
0 -677.29 p
0 -49.34 -11.96 -83.73 -35.86 -97.18 c
-22.4 -13.46 -43.3 -17.94 -106.02 -19.43 c
0 -21.96 412.45 0 ^ p
-117.93 1.5 -141.81 16.44 -141.81 88.19 c
0 896.86 h
f
34706.9 11363 m
-82.2 0 -144.96 -25.56 -200.25 -77.85 c
-86.85 -83.67 -143.74 -255.48 -143.74 -430.28 c
0 -162.86 49.31 -337.66 119.55 -421.32 c
55.29 -65.73 131.51 -101.59 218.18 -101.59 c
76.21 0 140.47 25.39 194.27 77.69 c
86.84 82.17 143.74 255.48 143.74 436.26 c
0 306.28 -135.99 517.1 -331.75 517.1 c
h
34702.3 11324.1 m
125.44 0 192.64 -169.01 192.64 -481.18 c
0 -312.18 -65.71 -472 -194.14 -472 c
-128.43 0 -194.12 159.82 -194.12 470.5 c
0 316.66 67.2 482.68 195.62 482.68 c
h
f
34012 14684 -269.12 -135.99 0 -20.96 P
17.91 7.52 34.34 13.54 40.31 16.55 c
26.88 10.53 52.27 16.55 67.2 16.55 c
31.36 0 44.82 -22.46 44.82 -70.31 c
0 -677.29 p
0 -49.34 -11.96 -83.73 -35.86 -97.18 c
-22.4 -13.46 -43.3 -17.94 -106.02 -19.43 c
0 -21.96 412.45 0 ^ p
-117.93 1.5 -141.81 16.44 -141.81 88.19 c
0 896.86 h
f
34597.5 14545.2 292.9 0 P
23.91 0 29.89 2.99 34.37 13.45 c
56.79 133 -13.45 10.47 p
-22.41 -31.61 -37.36 -39.14 -68.74 -39.14 c
-312.33 0 -162.89 -354.37 p
-1.5 -2.99 -1.5 -4.48 -1.5 -7.47 c
0 -7.47 5.97 -11.96 17.92 -11.96 c
47.79 0 107.52 -10.46 168.74 -29.89 c
171.73 -55.29 250.9 -147.95 250.9 -295.89 c
0 -143.46 -91.15 -255.54 -207.63 -255.54 c
-29.87 0 -55.25 10.51 -100.05 43.56 c
-47.79 34.55 -82.13 49.58 -113.49 49.58 c
-43.3 0 -64.21 -17.97 -64.21 -55.34 c
0 -56.81 70.22 -92.7 182.27 -92.7 c
125.5 0 233.07 40.35 307.77 116.56 c
68.72 67.25 100.15 152.43 100.15 266 c
0 107.6 -28.87 176.34 -104.81 251.06 c
-65.43 65.75 -150.13 100.13 -325.48 131.51 c
h
f
34286.8 17200.7 -19.43 7.47 P
-55.29 -84.99 -74.72 -98.41 -141.97 -98.41 c
-357.16 0 251.12 262.89 p
133.04 138.91 191.38 252.42 191.38 368.93 c
0 149.36 -121.09 264.41 -276.55 264.41 c
-82.21 0 -159.94 -32.89 -215.25 -92.62 c
-47.83 -50.77 -70.25 -98.56 -95.66 -204.58 c
31.37 -7.47 p
59.77 146.13 113.55 193.87 216.64 193.87 c
125.5 0 210.68 -85.18 210.68 -210.65 c
0 -116.5 -68.75 -255.42 -194.25 -388.36 c
-265.93 -282.3 0 -17.92 582.82 0 h
f
34706.9 18006 m
-82.2 0 -144.96 -25.56 -200.25 -77.85 c
-86.85 -83.67 -143.74 -255.48 -143.74 -430.28 c
0 -162.86 49.31 -337.66 119.55 -421.32 c
55.29 -65.73 131.51 -101.59 218.18 -101.59 c
76.21 0 140.47 25.39 194.27 77.69 c
86.84 82.17 143.74 255.48 143.74 436.26 c
0 306.28 -135.99 517.1 -331.75 517.1 c
h
34702.3 17967.1 m
125.44 0 192.64 -169.01 192.64 -481.18 c
0 -312.18 -65.71 -472 -194.14 -472 c
-128.43 0 -194.12 159.82 -194.12 470.5 c
0 316.66 67.2 482.68 195.62 482.68 c
h
f
34286.8 20521.7 -19.43 7.47 P
-55.29 -84.99 -74.72 -98.41 -141.97 -98.41 c
-357.16 0 251.12 262.89 p
133.04 138.91 191.38 252.42 191.38 368.93 c
0 149.36 -121.09 264.41 -276.55 264.41 c
-82.21 0 -159.94 -32.89 -215.25 -92.62 c
-47.83 -50.77 -70.25 -98.56 -95.66 -204.58 c
31.37 -7.47 p
59.77 146.13 113.55 193.87 216.64 193.87 c
125.5 0 210.68 -85.18 210.68 -210.65 c
0 -116.5 -68.75 -255.42 -194.25 -388.36 c
-265.93 -282.3 0 -17.92 582.82 0 h
f
34597.5 21188.2 292.9 0 P
23.91 0 29.89 2.99 34.37 13.45 c
56.79 133 -13.45 10.47 p
-22.41 -31.61 -37.36 -39.14 -68.74 -39.14 c
-312.33 0 -162.89 -354.37 p
-1.5 -2.99 -1.5 -4.48 -1.5 -7.47 c
0 -7.47 5.97 -11.96 17.92 -11.96 c
47.79 0 107.52 -10.46 168.74 -29.89 c
171.73 -55.29 250.9 -147.95 250.9 -295.89 c
0 -143.46 -91.15 -255.54 -207.63 -255.54 c
-29.87 0 -55.25 10.51 -100.05 43.56 c
-47.79 34.55 -82.13 49.58 -113.49 49.58 c
-43.3 0 -64.21 -17.97 -64.21 -55.34 c
0 -56.81 70.22 -92.7 182.27 -92.7 c
125.5 0 233.07 40.35 307.77 116.56 c
68.72 67.25 100.15 152.43 100.15 266 c
0 107.6 -28.87 176.34 -104.81 251.06 c
-65.43 65.75 -150.13 100.13 -325.48 131.51 c
h
f
33805.6 24131.9 m
88.17 0 122.54 -2.99 158.41 -16.43 c
92.65 -32.86 150.93 -118 150.93 -221.06 c
0 -125.47 -85.18 -222.55 -195.77 -222.55 c
-40.35 0 -70.24 10.46 -125.53 46.32 c
-44.83 26.89 -70.23 37.36 -95.64 37.36 c
-34.37 0 -56.79 -20.96 -56.79 -52.36 c
0 -52.33 64.45 -85.22 169.36 -85.22 c
115.41 0 233.81 38.84 304.37 100.1 c
69.39 61.26 107.8 147.91 107.8 248.01 c
0 76.2 -23.96 146.41 -67.34 192.73 c
-29.92 32.87 -58.33 50.8 -124.15 79.18 c
103.11 70.22 140.47 125.5 140.47 206.18 c
0 121.02 -95.64 204.84 -233.12 204.84 c
-74.72 0 -140.47 -25.44 -194.27 -73.21 c
-44.83 -40.31 -67.25 -79.12 -100.12 -168.7 c
22.42 -5.97 p
61.31 108.82 128.59 158.04 222.78 158.04 c
97.18 0 164.54 -65.78 164.54 -159.88 c
0 -53.77 -22.47 -107.54 -59.86 -144.89 c
-44.87 -44.81 -86.75 -67.22 -188.47 -103.07 c
h
f
34706.9 24649 m
-82.2 0 -144.96 -25.56 -200.25 -77.85 c
-86.85 -83.67 -143.74 -255.48 -143.74 -430.28 c
0 -162.86 49.31 -337.66 119.55 -421.32 c
55.29 -65.73 131.51 -101.59 218.18 -101.59 c
76.21 0 140.47 25.39 194.27 77.69 c
86.84 82.17 143.74 255.48 143.74 436.26 c
0 306.28 -135.99 517.1 -331.75 517.1 c
h
34702.3 24610.1 m
125.44 0 192.64 -169.01 192.64 -481.18 c
0 -312.18 -65.71 -472 -194.14 -472 c
-128.43 0 -194.12 159.82 -194.12 470.5 c
0 316.66 67.2 482.68 195.62 482.68 c
h
f
33805.6 27452.9 m
88.17 0 122.54 -2.99 158.41 -16.43 c
92.65 -32.86 150.93 -118 150.93 -221.06 c
0 -125.47 -85.18 -222.55 -195.77 -222.55 c
-40.35 0 -70.24 10.46 -125.53 46.32 c
-44.83 26.89 -70.23 37.36 -95.64 37.36 c
-34.37 0 -56.79 -20.96 -56.79 -52.36 c
0 -52.33 64.45 -85.22 169.36 -85.22 c
115.41 0 233.81 38.84 304.37 100.1 c
69.39 61.26 107.8 147.91 107.8 248.01 c
0 76.2 -23.96 146.41 -67.34 192.73 c
-29.92 32.87 -58.33 50.8 -124.15 79.18 c
103.11 70.22 140.47 125.5 140.47 206.18 c
0 121.02 -95.64 204.84 -233.12 204.84 c
-74.72 0 -140.47 -25.44 -194.27 -73.21 c
-44.83 -40.31 -67.25 -79.12 -100.12 -168.7 c
22.42 -5.97 p
61.31 108.82 128.59 158.04 222.78 158.04 c
97.18 0 164.54 -65.78 164.54 -159.88 c
0 -53.77 -22.47 -107.54 -59.86 -144.89 c
-44.87 -44.81 -86.75 -67.22 -188.47 -103.07 c
h
f
34597.5 27831.2 292.9 0 P
23.91 0 29.89 2.99 34.37 13.45 c
56.79 133 -13.45 10.47 p
-22.41 -31.61 -37.36 -39.14 -68.74 -39.14 c
-312.33 0 -162.89 -354.37 p
-1.5 -2.99 -1.5 -4.48 -1.5 -7.47 c
0 -7.47 5.97 -11.96 17.92 -11.96 c
47.79 0 107.52 -10.46 168.74 -29.89 c
171.73 -55.29 250.9 -147.95 250.9 -295.89 c
0 -143.46 -91.15 -255.54 -207.63 -255.54 c
-29.87 0 -55.25 10.51 -100.05 43.56 c
-47.79 34.55 -82.13 49.58 -113.49 49.58 c
-43.3 0 -64.21 -17.97 -64.21 -55.34 c
0 -56.81 70.22 -92.7 182.27 -92.7 c
125.5 0 233.07 40.35 307.77 116.56 c
68.72 67.25 100.15 152.43 100.15 266 c
0 107.6 -28.87 176.34 -104.81 251.06 c
-65.43 65.75 -150.13 100.13 -325.48 131.51 c
h
f
31551 15772.3 0 -379.32 24.14 0 P
8.97 94.28 20.93 115.26 61.3 115.26 c
20.93 0 53.82 -5.98 95.69 -17.93 c
695.23 -195.77 p
58.31 -16.44 80.73 -37.36 80.73 -73.23 c
0 -35.86 -19.48 -52.3 -59.95 -52.3 c
-7.49 0 -13.48 0 -22.48 0 c
-13.49 0 p
-37.46 0 -70.46 -33.97 -70.46 -70.87 c
0 -39.85 32.93 -67.88 80.76 -67.88 c
77.73 0 131.54 69.86 131.54 173.91 c
0 75.8 -29.89 142.69 -85.2 188.82 c
-47.83 40.47 -115.1 70.46 -228.7 101.94 c
-554.55 154.41 p
-89.69 26.98 -98.66 37.48 -110.61 122.97 c
h
f
32405.3 15748.5 m
-55.46 23.18 -65.46 37.53 -65.46 89.4 c
0 161.21 411.26 -342.36 9.95 9.94 p
-14.12 17.67 -19.56 32.03 -19.56 50.8 c
0 26.51 14.46 62.96 46.66 114.88 c
34.43 55.22 48.86 92.78 48.86 123.7 c
0 55.22 -39.93 103.9 -84.31 103.9 c
-23.3 0 -39.96 -15.41 -39.96 -38.5 c
0 -22 14.38 -37.39 34.28 -37.39 c
10.07 0 21.23 3.21 33.53 9.65 c
6.7 3.22 13.4 5.37 16.75 5.37 c
10.06 0 16.76 -12.15 16.76 -29.81 c
0 -27.59 -8.85 -40.84 -55.33 -77.26 c
-63.08 -48.56 -77.46 -69.53 -91.85 -133.55 c
-380.7 320.7 -12.19 0 0 -314.06 126.91 -34.28 h
f
cleartomark end end pagesave restore
 showpage
%%PageTrailer
%%Trailer
%%Pages: 1
cleartomark
countdictstack
exch sub { end } repeat
restore
%%EOF
